{
  "parent": "block/cube",
  "textures": {
    "down": "alter_weapons:blocks/ruby_ore",
    "up": "alter_weapons:blocks/ruby_ore",
    "north": "alter_weapons:blocks/ruby_ore",
    "east": "alter_weapons:blocks/ruby_ore",
    "south": "alter_weapons:blocks/ruby_ore",
    "west": "alter_weapons:blocks/ruby_ore",
    "particle": "alter_weapons:blocks/ruby_ore"
  }
}