{
  "_fv": 18,
  "_type": "tool",
  "definition": {
    "renderType": 0,
    "texture": "alter_emerald_sword",
    "customModelName": "Normal",
    "name": "Alter Emerald Sword",
    "specialInfo": [],
    "creativeTab": {
      "value": "CUSTOM:AlterWeaponsWeapons"
    },
    "toolType": "Sword",
    "harvestLevel": 1,
    "efficiency": 4.0,
    "attackSpeed": 3.0,
    "enchantability": 2,
    "damageVsEntity": 5.0,
    "usageCount": 230,
    "blocksAffected": [],
    "hasGlow": false,
    "repairItems": [
      {
        "value": "CUSTOM:AlterEmerald"
      },
      {
        "value": "CUSTOM:AlterIron"
      }
    ],
    "immuneToFire": false,
    "stayInGridWhenCrafting": false,
    "damageOnCrafting": false,
    "onRightClickedInAir": {
      "name": "AlterEmeraldSwordRightClickedInAir"
    },
    "onItemInUseTick": {
      "name": "AlterEmeraldSwordToolInHandTick"
    }
  }
}