{
  "_fv": 18,
  "_type": "tool",
  "definition": {
    "renderType": 0,
    "texture": "alter_storm_sword",
    "customModelName": "Normal",
    "name": "Alter Stormwind Sword",
    "specialInfo": [],
    "creativeTab": {
      "value": "CUSTOM:AlterWeaponsWeapons"
    },
    "toolType": "Sword",
    "harvestLevel": 1,
    "efficiency": 4.0,
    "attackSpeed": 5.0,
    "enchantability": 2,
    "damageVsEntity": 15.0,
    "usageCount": 150,
    "blocksAffected": [],
    "hasGlow": false,
    "repairItems": [
      {
        "value": "CUSTOM:AlteriseExcalibur"
      },
      {
        "value": "Items.ELYTRA"
      }
    ],
    "immuneToFire": false,
    "stayInGridWhenCrafting": false,
    "damageOnCrafting": false,
    "onEntityHitWith": {
      "name": "Kama_Itachi"
    }
  }
}